%YAML 1.1
%TAG !u! tag:unity3d.com,2011:
--- !u!114 &-1830635669597816237
MonoBehaviour:
  m_ObjectHideFlags: 11
  m_CorrespondingSourceObject: {fileID: 0}
  m_PrefabInstance: {fileID: 0}
  m_PrefabAsset: {fileID: 0}
  m_GameObject: {fileID: 0}
  m_Enabled: 1
  m_EditorHideFlags: 0
  m_Script: {fileID: 11500000, guid: d0353a89b1f911e48b9e16bdc9f2e058, type: 3}
  m_Name: 
  m_EditorClassIdentifier: 
  version: 5
--- !u!21 &2100000
Material:
  serializedVersion: 8
  m_ObjectHideFlags: 0
  m_CorrespondingSourceObject: {fileID: 0}
  m_PrefabInstance: {fileID: 0}
  m_PrefabAsset: {fileID: 0}
  m_Name: TrollSkin
  m_Shader: {fileID: -6465566751694194690, guid: 4c6ba88e0409a0b4aa4aec20470b226a, type: 3}
  m_ValidKeywords:
  - _ALPHATEST_ON
  m_InvalidKeywords: []
  m_LightmapFlags: 2
  m_EnableInstancingVariants: 0
  m_DoubleSidedGI: 0
  m_CustomRenderQueue: 2450
  stringTagMap:
    RenderType: TransparentCutout
  disabledShaderPasses: []
  m_SavedProperties:
    serializedVersion: 3
    m_TexEnvs:
    - unity_Lightmaps:
        m_Texture: {fileID: 0}
        m_Scale: {x: 1, y: 1}
        m_Offset: {x: 0, y: 0}
    - unity_LightmapsInd:
        m_Texture: {fileID: 0}
        m_Scale: {x: 1, y: 1}
        m_Offset: {x: 0, y: 0}
    - unity_ShadowMasks:
        m_Texture: {fileID: 0}
        m_Scale: {x: 1, y: 1}
        m_Offset: {x: 0, y: 0}
    m_Ints: []
    m_Floats:
    - _AlphaClip: 1
    - _Blend: 0
    - _CastShadows: 1
    - _Cull: 2
    - _DisolveAmount: 0
    - _DisolveScale: 40
    - _DstBlend: 0
    - _EdgeThickness: 0.04
    - _QueueControl: 0
    - _QueueOffset: 0
    - _ReceiveShadows: 1
    - _SrcBlend: 1
    - _Surface: 0
    - _WorkflowMode: 1
    - _ZTest: 4
    - _ZWrite: 1
    - _ZWriteControl: 0
    m_Colors:
    - _BaseColor: {r: 0.49019605, g: 0.20784307, b: 0.44313726, a: 0}
    - _DisolveColor: {r: 2.9960785, g: 1.8509804, b: 0, a: 0}
    - _EmissionColor: {r: 0, g: 0, b: 0, a: 0}
  m_BuildTextureStacks: []
